{
  "title": "Serveis",
  "subtitle": "Més informació",
  "items": [
    {
      "title": "Atenció Farmacèutica",
      "description": "Sobre el seguiment personalitzat.",
      "href": "/serveis/atencio-farmaceutica"
    },
    {
      "title": "SPD",
      "description": "Sobre el Sistema Personalitzat de Dosificació.",
      "href": "/serveis/spd"
    },
    {
      "title": "Encàrrecs Online",
      "description": "Encàrrecs de medicaments sense prescripció mèdica.",
      "href": "/serveis/encarrecs-online"
    }
  ]
}
