{
  "components": [
    {
      "name": "article",
      "display_name": null,
      "created_at": "2024-07-19T18:37:16.758Z",
      "updated_at": "2024-07-19T18:37:23.593Z",
      "id": 6071982,
      "schema": {
        "items": {
          "type": "bloks",
          "pos": 0
        }
      },
      "image": null,
      "preview_field": null,
      "is_root": false,
      "preview_tmpl": null,
      "is_nestable": true,
      "all_presets": [],
      "preset_id": null,
      "real_name": "article",
      "component_group_uuid": null,
      "color": null,
      "icon": null,
      "internal_tags_list": [],
      "internal_tag_ids": [],
      "content_type_asset_preview": null
    },
    {
      "name": "card",
      "display_name": null,
      "created_at": "2024-07-19T18:07:06.880Z",
      "updated_at": "2024-07-19T18:08:14.365Z",
      "id": 6071874,
      "schema": {
        "title": {
          "type": "text",
          "pos": 0
        },
        "body": {
          "type": "text",
          "pos": 1
        },
        "link": {
          "type": "multilink",
          "pos": 2
        },
        "image": {
          "type": "asset",
          "pos": 3,
          "filetypes": [
            "images"
          ]
        }
      },
      "image": null,
      "preview_field": null,
      "is_root": false,
      "preview_tmpl": null,
      "is_nestable": true,
      "all_presets": [],
      "preset_id": null,
      "real_name": "card",
      "component_group_uuid": null,
      "color": null,
      "icon": null,
      "internal_tags_list": [],
      "internal_tag_ids": [],
      "content_type_asset_preview": null
    },
    {
      "name": "cardList",
      "display_name": null,
      "created_at": "2024-07-19T18:26:49.038Z",
      "updated_at": "2024-07-19T18:27:22.027Z",
      "id": 6071948,
      "schema": {
        "items": {
          "type": "bloks",
          "pos": 0,
          "restrict_type": "",
          "restrict_components": true,
          "component_whitelist": [
            "card"
          ]
        }
      },
      "image": null,
      "preview_field": null,
      "is_root": false,
      "preview_tmpl": null,
      "is_nestable": true,
      "all_presets": [],
      "preset_id": null,
      "real_name": "cardList",
      "component_group_uuid": null,
      "color": null,
      "icon": null,
      "internal_tags_list": [],
      "internal_tag_ids": [],
      "content_type_asset_preview": null
    },
    {
      "name": "dropdown",
      "display_name": null,
      "created_at": "2024-05-16T17:14:31.853Z",
      "updated_at": "2024-07-19T19:18:36.304Z",
      "id": 5806089,
      "schema": {
        "title": {
          "type": "text",
          "translatable": true,
          "pos": 0
        },
        "subtitle": {
          "type": "text",
          "pos": 1
        },
        "options": {
          "type": "bloks",
          "options": [
            {
              "_uid": "206a18f1-a384-4752-944b-37411d3a9abb",
              "name": "Qui som?",
              "value": ""
            }
          ],
          "minimum": 1,
          "pos": 2
        }
      },
      "image": null,
      "preview_field": null,
      "is_root": true,
      "preview_tmpl": null,
      "is_nestable": true,
      "all_presets": [
        {
          "id": 2167170,
          "name": "Nosaltres",
          "component_id": 5806089,
          "image": "",
          "icon": "",
          "color": "",
          "description": ""
        }
      ],
      "preset_id": null,
      "real_name": "dropdown",
      "component_group_uuid": null,
      "color": null,
      "icon": null,
      "internal_tags_list": [],
      "internal_tag_ids": [],
      "content_type_asset_preview": null
    },
    {
      "name": "dropdownOption",
      "display_name": null,
      "created_at": "2024-05-16T18:01:46.403Z",
      "updated_at": "2024-05-16T18:10:42.184Z",
      "id": 5806200,
      "schema": {
        "text": {
          "type": "text"
        },
        "link": {
          "type": "multilink",
          "use_uuid": true,
          "max_options": "1"
        }
      },
      "image": null,
      "preview_field": null,
      "is_root": false,
      "preview_tmpl": null,
      "is_nestable": true,
      "all_presets": [],
      "preset_id": null,
      "real_name": "dropdownOption",
      "component_group_uuid": null,
      "color": null,
      "icon": null,
      "internal_tags_list": [],
      "internal_tag_ids": [],
      "content_type_asset_preview": null
    },
    {
      "name": "header",
      "display_name": null,
      "created_at": "2024-05-16T18:39:10.552Z",
      "updated_at": "2024-07-19T19:17:04.946Z",
      "id": 5806297,
      "schema": {
        "image": {
          "type": "asset"
        },
        "navigation": {
          "type": "bloks",
          "restrict_type": "",
          "restrict_components": true,
          "component_whitelist": [
            "dropdown"
          ]
        }
      },
      "image": null,
      "preview_field": null,
      "is_root": true,
      "preview_tmpl": null,
      "is_nestable": true,
      "all_presets": [],
      "preset_id": null,
      "real_name": "header",
      "component_group_uuid": null,
      "color": null,
      "icon": null,
      "internal_tags_list": [],
      "internal_tag_ids": [],
      "content_type_asset_preview": null
    },
    {
      "name": "Hero",
      "display_name": null,
      "created_at": "2024-05-20T17:58:10.893Z",
      "updated_at": "2024-05-20T17:59:32.594Z",
      "id": 5818160,
      "schema": {
        "images": {
          "type": "option",
          "use_uuid": true
        }
      },
      "image": null,
      "preview_field": null,
      "is_root": false,
      "preview_tmpl": null,
      "is_nestable": true,
      "all_presets": [],
      "preset_id": null,
      "real_name": "Hero",
      "component_group_uuid": null,
      "color": null,
      "icon": null,
      "internal_tags_list": [],
      "internal_tag_ids": [],
      "content_type_asset_preview": null
    },
    {
      "name": "page",
      "display_name": null,
      "created_at": "2024-05-13T19:19:51.960Z",
      "updated_at": "2024-05-13T19:19:51.960Z",
      "id": 5788108,
      "schema": {
        "body": {
          "type": "bloks"
        }
      },
      "image": null,
      "preview_field": null,
      "is_root": true,
      "preview_tmpl": null,
      "is_nestable": false,
      "all_presets": [],
      "preset_id": null,
      "real_name": "page",
      "component_group_uuid": null,
      "color": null,
      "icon": null,
      "internal_tags_list": [],
      "internal_tag_ids": [],
      "content_type_asset_preview": null
    },
    {
      "name": "section",
      "display_name": null,
      "created_at": "2024-07-19T18:08:38.183Z",
      "updated_at": "2024-07-19T18:08:48.205Z",
      "id": 6071905,
      "schema": {
        "options": {
          "type": "bloks",
          "pos": 0
        }
      },
      "image": null,
      "preview_field": null,
      "is_root": false,
      "preview_tmpl": null,
      "is_nestable": true,
      "all_presets": [],
      "preset_id": null,
      "real_name": "section",
      "component_group_uuid": null,
      "color": null,
      "icon": null,
      "internal_tags_list": [],
      "internal_tag_ids": [],
      "content_type_asset_preview": null
    },
    {
      "name": "table",
      "display_name": null,
      "created_at": "2024-07-19T21:57:39.801Z",
      "updated_at": "2024-07-19T21:57:39.801Z",
      "id": 6072216,
      "schema": {},
      "image": null,
      "preview_field": null,
      "is_root": false,
      "preview_tmpl": null,
      "is_nestable": true,
      "all_presets": [],
      "preset_id": null,
      "real_name": "table",
      "component_group_uuid": null,
      "color": null,
      "icon": null,
      "internal_tags_list": [],
      "internal_tag_ids": [],
      "content_type_asset_preview": null
    }
  ]
}