{
  "title": "Informació",
  "subtitle": "",
  "items": [
    {
      "title": "Guàrdies",
      "description": "Calendari de guàrdies diurnes i nocturnes del mes",
      "href": "/informacio/guardies"
    }
  ]
}
