{
    "title": "Fórmules magistrals",
    "paragraph": "La fórmula magistral és el medicament preparat pel farmacèutic, per a un pacient individualitzat per acomplir una prescripció mèdica, seguint les normes tècniques i científiques de correcta elaboració i control de qualitat i dispensat en oficina de farmàcia o servei farmacèutic"
}