{
  "logoAlt": "una creu en vermell sobre un fons transparent i el text farmàcia figueras en vermell",
  "dropdown": {
    "pharmacy": {
      "title": "LA FARMÀCIA",
      "subtitle": "Sobre Nosaltres",
      "options": {
        "whoWeAre": { "text": "Qui som?", "link": "/la-farmacia/membres" },
        "whereWeAre": { "text": "On som? / Contacte", "link": "/la-farmacia/contacte" }
      }
    },
    "services": {
      "title": "SERVEIS",
      "subtitle": "Què fem?",
      "options": {
        "pharmaceuticalCare": { "text": "Atenció farmacèutica", "link": "/serveis/atencio-farmaceutica" },
        "spd": { "text": "SPD", "link": "/serveis/spd" },
        "clientOrders": { "text": "Encàrrecs clients", "link": "/serveis/encarrecs-online" },
        "magistralFormulas": { "text": "Formules magistrals", "link": "/serveis/formules-magistrals" }
      }
    },
    "information": {
      "title": "INFORMACIÓ",
      "subtitle": "Què has de saber?",
      "options": {
        "guards": { "text": "Guàrdies", "link": "/informacio/guardies" }
      }
    },
    "loyalty": {
      "title": "FIDELITZACIÓ",
      "subtitle": "Farmacèutics",
      "options": {
        "becomeClient": { "text": "Fes-te client", "link": "https://farma-ceutics.com/ca/targeta/" }
      }
    }
  }
}
